<svg xmlns="http://www.w3.org/2000/svg" xmlns:xlink="http://www.w3.org/1999/xlink" width="2160" height="1080" viewBox="0 0 2160 1080">
  <defs>
    <clipPath id="clip-path">
      <rect id="Rectangle_1700" data-name="Rectangle 1700" width="2160" height="1080" fill="none"/>
    </clipPath>
  </defs>
  <g id="dark_background_bg" data-name="dark background bg" transform="translate(142.33 -97.68)" opacity="0.2">
    <g id="Layer_1" data-name="Layer 1" transform="translate(-142.33 97.68)">
      <g id="Group_4993" data-name="Group 4993" transform="translate(0 0)" clip-path="url(#clip-path)">
        <path id="Path_16003" data-name="Path 16003" d="M757.543,74.267l-210-116.25,56.513-50.662L757.806,20.417V18.2L604.506-94.3a.9.9,0,0,0-1.125,0l-58.125,52.05a.938.938,0,0,0-.262.75.787.787,0,0,0,.45.675L757.506,76.4Z" transform="translate(1498.719 -259.855)" fill="#fff"/>
        <path id="Path_16004" data-name="Path 16004" d="M756.732,195.12,549.095-76.98,757.52,38.22V36.195L546.282-80.543a.9.9,0,0,0-1.087.187.9.9,0,0,0,0,1.125l211.5,277.237Z" transform="translate(1498.743 -221.783)" fill="#fff"/>
        <path id="Path_16005" data-name="Path 16005" d="M376.218,434.356l282.713-127.5,27.712,129.075h1.8l-28.012-130.5a.937.937,0,0,0-.45-.6.974.974,0,0,0-.787,0L371.83,434.319Z" transform="translate(1022.533 838.056)" fill="#fff"/>
        <path id="Path_16006" data-name="Path 16006" d="M593.455,422.09,407.98,481.34l5.7.037,179.738-57.45Z" transform="translate(1655.682 794.447)" fill="#fff"/>
        <path id="Path_16007" data-name="Path 16007" d="M715.19,22.085,563.915-89.1,715.79-94.128V-95.89l-154.463,5.1a.863.863,0,0,0-.787.638.9.9,0,0,0,.3.975L715.19,24.3Z" transform="translate(1541.372 -263.698)" fill="#fff"/>
        <path id="Path_16008" data-name="Path 16008" d="M753.756,188.307,549.043,176.232,714.455,75.957l39.713,30.937v-2.213L715.056,74.194a.9.9,0,0,0-1.013,0L545.706,176.269a.9.9,0,0,0-.375.975.862.862,0,0,0,.787.675l207.637,12.225Z" transform="translate(1499.582 203.606)" fill="#fff"/>
        <path id="Path_16009" data-name="Path 16009" d="M197.285,383.21l33.75-57.487,6.787,57.712h1.763L232.46,322.91a.937.937,0,0,0-.675-.788.862.862,0,0,0-.937.45L195.26,383.21Z" transform="translate(536.965 885.79)" fill="#fff"/>
        <path id="Path_16010" data-name="Path 16010" d="M593.455,422.09,407.98,481.34l5.7.037,179.738-57.45Z" transform="translate(1655.682 794.447)" fill="#fff"/>
        <path id="Path_16011" data-name="Path 16011" d="M764.752,357.245,570.315,309.02a.9.9,0,0,0-1.087.638L539.79,425.907h1.837l28.95-115.05L764.6,359.045Z" transform="translate(1484.423 849.73)" fill="#fff"/>
        <path id="Path_16012" data-name="Path 16012" d="M739.813,239.152,633.575,300.128l-80.25-21.337,186.637-71.475V205.44l-189.787,72.6a.825.825,0,0,0-.562.863.787.787,0,0,0,.637.787l83.325,22.238h0a1.014,1.014,0,0,0,.45,0L739.813,241.29Z" transform="translate(1511.425 564.96)" fill="#fff"/>
        <path id="Path_16013" data-name="Path 16013" d="M478.042,435.978,450.367,307.016l107.288,38.1-46.35,91.05h1.988L559.717,345a.788.788,0,0,0,0-.712.75.75,0,0,0-.525-.525L449.467,304.841a.976.976,0,0,0-.9,0,.937.937,0,0,0-.262.863l27.937,130.125Z" transform="translate(1232.783 838.009)" fill="#fff"/>
        <path id="Path_16014" data-name="Path 16014" d="M467.022,407.57l45.713-89.775,56.962,90.3h2.1l-58.35-92.55a.825.825,0,0,0-.787-.413.787.787,0,0,0-.713.488L465.11,407.57Z" transform="translate(1279.053 866.605)" fill="#fff"/>
        <path id="Path_16015" data-name="Path 16015" d="M535.371,408.2h2.1l-56.7-90L674.5,408.917h4.2l-199.913-93.75a.834.834,0,0,0-1.012,1.275Z" transform="translate(1313.379 866.496)" fill="#fff"/>
        <path id="Path_16016" data-name="Path 16016" d="M478.037,333.62,674.5,425.607h4.2L481.75,333.395l258.337-22.5L710.95,425.982h1.837l29.325-115.837a.826.826,0,0,0-.187-.788,1.012,1.012,0,0,0-.75-.337l-262.837,23.1a.9.9,0,0,0-.787.713A.937.937,0,0,0,478.037,333.62Z" transform="translate(1313.263 849.805)" fill="#fff"/>
        <path id="Path_16017" data-name="Path 16017" d="M213.565,383.445l-6.9-58.687,91.387,59.1h3.262l-95.25-61.613a.9.9,0,0,0-.975,0,.863.863,0,0,0-.375.825l7.087,60.338Z" transform="translate(562.948 885.78)" fill="#fff"/>
        <path id="Path_16018" data-name="Path 16018" d="M370.031,232.532a.75.75,0,0,1-.412,0,.787.787,0,0,1-.413-.563l-9.037-43.687a.751.751,0,0,1,0-.675.937.937,0,0,1,.6-.375l223.5-25.875a.87.87,0,0,1,.375,1.688L370.181,232.607Zm-7.95-43.762,8.625,41.775,205.125-66.525Z" transform="translate(990.244 443.705)" fill="#fff"/>
        <path id="Path_16019" data-name="Path 16019" d="M175.052,432.366,186.6,306.4l104.175,66.45-35.137,60H257.7l35.025-59.775a.825.825,0,0,0-.263-1.162L186.34,304.191a.9.9,0,0,0-.862,0,.824.824,0,0,0-.488.712l-11.7,127.5Z" transform="translate(476.548 836.222)" fill="#fff"/>
        <path id="Path_16020" data-name="Path 16020" d="M283.425,466.914a.752.752,0,0,1-.487,0L176.812,399.226a1.087,1.087,0,0,1-.412-.712.938.938,0,0,1,.375-.75l181.2-127.5a.9.9,0,0,1,1.05,0,.863.863,0,0,1,.263,1.012l-75,195a.975.975,0,0,1-.563.525Zm-104.55-68.625,104.1,66.45,73.65-191.25Z" transform="translate(485.1 742.761)" fill="#fff"/>
        <path id="Path_16021" data-name="Path 16021" d="M527.235,472.106h0l-321.713-5.138a.975.975,0,0,1-.713-.375.937.937,0,0,1,0-.825l75-195a.787.787,0,0,1,.562-.525.825.825,0,0,1,.788,0L527.8,470.381a.9.9,0,0,1,.3.975A.937.937,0,0,1,527.235,472.106Zm-320.4-6.863,317.887,5.063L280.973,272.531Z" transform="translate(562.965 742.894)" fill="#fff"/>
        <path id="Path_16022" data-name="Path 16022" d="M297.825,383.862h3.262l-92.7-60,315.337,5.025L423.075,384.5h3.75l100.987-55.612a.862.862,0,0,0,.412-.975.825.825,0,0,0-.825-.675L205.688,322.1h0a.937.937,0,0,0-.862.637.863.863,0,0,0,.375.975Z" transform="translate(563.175 885.775)" fill="#fff"/>
        <path id="Path_16023" data-name="Path 16023" d="M266.413,380.688l98.062-54L331.1,381.026h2.063l34.575-56.25a.9.9,0,0,0,0-1.087.825.825,0,0,0-1.05,0L263,380.651Z" transform="translate(723.25 889.624)" fill="#fff"/>
        <path id="Path_16024" data-name="Path 16024" d="M283.222,381.085l34.2-55.65,194.812,56.85h6.413L317.272,323.522a.862.862,0,0,0-1.012.375l-35.1,57.188Z" transform="translate(773.19 889.565)" fill="#fff"/>
        <path id="Path_16025" data-name="Path 16025" d="M792.457,426.052a.562.562,0,0,1-.338,0L420.269,276.764a.863.863,0,0,1-.563-.675.938.938,0,0,1,.3-.825L608.332,120.052a.937.937,0,0,1,.712,0,.863.863,0,0,1,.6.413l183.75,304.5a.863.863,0,0,1,0,1.013A.938.938,0,0,1,792.457,426.052ZM422.294,275.6,790.357,423.389,608.632,122Z" transform="translate(1154.168 329.948)" fill="#fff"/>
        <path id="Path_16026" data-name="Path 16026" d="M654.462,476.673a.862.862,0,0,1-.75-.413l-183.75-304.5a.814.814,0,0,1,.375-1.088l154.275-69a.9.9,0,0,1,.825,0,.862.862,0,0,1,.412.675l29.363,373.5a.9.9,0,0,1-.637.9ZM472.137,171.723,653.3,472.173l-28.95-368.55Z" transform="translate(1292.163 279.326)" fill="#fff"/>
        <path id="Path_16027" data-name="Path 16027" d="M541.375,477.563h0a.863.863,0,0,1-.788-.788L511,103.275a1.125,1.125,0,0,1,.225-.675,1.088,1.088,0,0,1,.675-.263l128.437-1.087a1.238,1.238,0,0,1,.713.337.9.9,0,0,1,0,.75L541.937,476.925a.9.9,0,0,1-.562.638Zm-28.388-373.5,28.875,367.5,97.5-368.438Z" transform="translate(1405.25 278.437)" fill="#fff"/>
        <path id="Path_16028" data-name="Path 16028" d="M824.5,241.2,635.163,313.685,522.025,226.647,824.763,194.21v-1.8l-305.1,32.7a.887.887,0,0,0-.45,1.575l115.275,88.687a.9.9,0,0,0,.525.188h.337L824.5,243.11Z" transform="translate(1426.887 529.127)" fill="#fff"/>
        <path id="Path_16029" data-name="Path 16029" d="M511.933,192.838a.9.9,0,0,1-.825-.562.863.863,0,0,1,.225-.975L639.245,69.088a.976.976,0,0,1,.938,0,.938.938,0,0,1,.563.825l.525,121.238a.862.862,0,0,1-.863.9l-128.475,1.087ZM638.983,71.713,514.145,191.076l125.362-1.05Z" transform="translate(1405.367 189.662)" fill="#fff"/>
        <path id="Path_16030" data-name="Path 16030" d="M755.705,378.805,547.28,479.718l-.638-556.875,210,275.175V195.13l-210-275.437a.937.937,0,0,0-1.012-.3.976.976,0,0,0-.6.862l.637,560.85a.862.862,0,0,0,.412.75.9.9,0,0,0,.45,0,.6.6,0,0,0,.375,0l208.95-101.25Z" transform="translate(1498.833 -221.793)" fill="#fff"/>
        <path id="Path_16031" data-name="Path 16031" d="M546.549,191.846a.864.864,0,0,1-.413,0,.9.9,0,0,1-.45-.788l-.525-121.238a.788.788,0,0,1,.262-.638.825.825,0,0,1,.713-.225l168.75,19.162a.867.867,0,0,1,.337,1.613l-168.3,102.075a.749.749,0,0,1-.375.037Zm.375-121.162.525,118.725L712.224,89.471Z" transform="translate(1499.189 189.604)" fill="#fff"/>
        <path id="Path_16032" data-name="Path 16032" d="M754.987,114.385l-40.462,48-165.375-18.75L755.4,43.847V41.86L545.662,143.41a.825.825,0,0,0-.488.937.862.862,0,0,0,.75.713l168.75,19.2h0a.862.862,0,0,0,.675-.3l39.413-46.837Z" transform="translate(1499.176 115.115)" fill="#fff"/>
        <path id="Path_16033" data-name="Path 16033" d="M630.639,128.962l-38.363-19.05,38.7-45.975V61.2l-40.687,48.412a1.088,1.088,0,0,0,0,.75.862.862,0,0,0,.487.6l39.862,19.95Z" transform="translate(1623.111 168.3)" fill="#fff"/>
        <path id="Path_16034" data-name="Path 16034" d="M630.771,104.71,598.559,79.622l32.25,16.012v-1.95L591.471,74.11a.938.938,0,0,0-1.163.338.862.862,0,0,0,.225,1.162l40.238,31.313Z" transform="translate(1622.979 203.578)" fill="#fff"/>
        <path id="Path_16035" data-name="Path 16035" d="M291.131,460.134l195.45,57.037h6.412L293.719,459.009,647.194,277.1,561.806,517.509h1.837l85.95-241.988a.862.862,0,0,0-.262-.937.787.787,0,0,0-.975,0L290.981,458.521a.9.9,0,0,0-.488.9A.938.938,0,0,0,291.131,460.134Z" transform="translate(798.844 754.641)" fill="#fff"/>
        <path id="Path_16036" data-name="Path 16036" d="M364.65,517.594l85.613-240.975,231.9,112.5L396.525,517.744h4.388l283.725-127.95a.88.88,0,0,0,0-1.575L450.3,274.482a.937.937,0,0,0-.712,0,.749.749,0,0,0-.488.525L362.85,517.519Z" transform="translate(997.838 754.631)" fill="#fff"/>
        <path id="Path_16037" data-name="Path 16037" d="M466.014,258.893a.862.862,0,0,1-.525,0L362.852,181.455a.863.863,0,0,1-.225-1.125.9.9,0,0,1,1.088-.413l162.862,59.287a.825.825,0,0,1,.562.825.9.9,0,0,1-.6.825l-60.3,18Zm-97.5-75.3,97.5,73.462,57.3-17.137Z" transform="translate(996.898 494.632)" fill="#fff"/>
        <path id="Path_16038" data-name="Path 16038" d="M526.273,291.877h-.3L363.111,232.59a.825.825,0,0,1-.6-.825.9.9,0,0,1,.6-.825l214.463-69.562a.825.825,0,0,1,.9.225.862.862,0,0,1,0,.937L527.1,291.352A.938.938,0,0,1,526.273,291.877Zm-160.162-60L525.785,290l50.55-126.3Z" transform="translate(996.902 443.648)" fill="#fff"/>
        <path id="Path_16039" data-name="Path 16039" d="M386.55,492.74h0a.937.937,0,0,1-.75-.937l15.3-277.275a.937.937,0,0,1,.638-.825L462,195.7a.9.9,0,0,1,.863.225.825.825,0,0,1,.262.825l-75.6,295.313a.825.825,0,0,1-.975.675Zm16.125-277.5L387.9,482.953l72.975-285Z" transform="translate(1060.95 538.097)" fill="#fff"/>
        <path id="Path_16040" data-name="Path 16040" d="M830.2,312.466h0l-423.45-20.475a.788.788,0,0,1-.675-.525.825.825,0,0,1,0-.787l51.6-128.85a.937.937,0,0,1,.45-.488,1.049,1.049,0,0,1,.675,0L830.686,310.666a.825.825,0,0,1,.525,1.012.863.863,0,0,1-1.013.788ZM408.023,290.3l417,20.137-366.225-147Z" transform="translate(1116.427 443.534)" fill="#fff"/>
        <path id="Path_16041" data-name="Path 16041" d="M452.41,409.45h-.3a.863.863,0,0,1-.563-.712l-43.425-336a.939.939,0,0,1,1.425-.862L641.223,252.738a.788.788,0,0,1,.338.675.863.863,0,0,1-.3.675L452.973,409.263A.75.75,0,0,1,452.41,409.45ZM410.148,74.538l42.938,332.325,186.187-153.45Z" transform="translate(1122.327 197.262)" fill="#fff"/>
        <path id="Path_16042" data-name="Path 16042" d="M640.7,320.766a1.126,1.126,0,0,1-.562,0L408.46,139.678a.9.9,0,0,1-.337-.787.825.825,0,0,1,.525-.675L610.473,47.653a.847.847,0,0,1,1.237.675l30,271.425a.862.862,0,0,1-.45.862.749.749,0,0,1-.562.15ZM410.71,139.228,639.46,317.916,610.173,49.753Z" transform="translate(1122.327 130.772)" fill="#fff"/>
        <path id="Path_16043" data-name="Path 16043" d="M533.462,401.774h0a.788.788,0,0,1-.713-.638L436.3,1.2a1.09,1.09,0,0,1,0-.675.937.937,0,0,1,.562-.375L844.749-80.626a.9.9,0,0,1,.9.337.863.863,0,0,1,0,.975L534.212,401.474A.863.863,0,0,1,533.462,401.774ZM438.212,1.686l95.663,397.125L843.062-78.526Z" transform="translate(1199.676 -221.774)" fill="#fff"/>
        <path id="Path_16044" data-name="Path 16044" d="M492.775,320.636a.713.713,0,0,1-.45,0,.75.75,0,0,1-.412-.637l-30-271.425a.9.9,0,0,1,.525-.9.938.938,0,0,1,1.012.188l184.125,202.5a.9.9,0,0,1,.225.75.975.975,0,0,1-.525.637L493,320.711A.6.6,0,0,1,492.775,320.636ZM464.088,50.9l29.438,267.562,152.063-68.025Z" transform="translate(1270.25 130.901)" fill="#fff"/>
        <path id="Path_16045" data-name="Path 16045" d="M646.931,251.588h0a.938.938,0,0,1-.638-.3L462.131,49.088a.949.949,0,0,1,.938-1.462l312.075,80.1a.9.9,0,0,1,.638.637.936.936,0,0,1-.263.863L647.605,251.55a.9.9,0,0,1-.675.037Zm-181.5-201.75L646.968,249.45,773.081,128.813Z" transform="translate(1270.369 130.912)" fill="#fff"/>
        <path id="Path_16046" data-name="Path 16046" d="M774.893,482.015h-.225L462.63,401.84a.862.862,0,0,1-.6-.525.936.936,0,0,1,0-.825L773.28-80.26a.862.862,0,0,1,.975-.375.9.9,0,0,1,.638.863l.637,560.85a.974.974,0,0,1-.375.712A.675.675,0,0,1,774.893,482.015Zm-310.65-81.487,309.787,79.5-.6-556.763Z" transform="translate(1270.32 -221.84)" fill="#fff"/>
        <path id="Path_16047" data-name="Path 16047" d="M386.653,492.737a.9.9,0,0,1-.637-.262.862.862,0,0,1-.225-.825l75.863-295.313a.9.9,0,0,1,1.35-.525L783.59,417.062a.886.886,0,0,1-.337,1.613L387.1,492.55Zm76.088-294.75-75,292.763,392.7-73.237Z" transform="translate(1060.847 538.1)" fill="#fff"/>
        <path id="Path_16048" data-name="Path 16048" d="M621.031,443.993a.6.6,0,0,1-.375,0l-234.375-113.7a.975.975,0,0,1-.488-.938.937.937,0,0,1,.713-.75l396.187-73.838a.787.787,0,0,1,.9.413.9.9,0,0,1,0,1.012l-161.812,187.5a.862.862,0,0,1-.75.3ZM389.468,329.805,620.806,442.043l159.75-185.175Z" transform="translate(1060.919 700.544)" fill="#fff"/>
        <path id="Path_16049" data-name="Path 16049" d="M727.416,418.87a.75.75,0,0,1-.488,0L406.341,197.283A.825.825,0,0,1,406,196.27a.9.9,0,0,1,.863-.6l423.45,20.475a1.05,1.05,0,0,1,.75.45.9.9,0,0,1,0,.825L728.2,418.383a.9.9,0,0,1-.562.488ZM409.866,197.62,727.079,416.733l101.813-198.75Z" transform="translate(1116.346 538.092)" fill="#fff"/>
        <path id="Path_16050" data-name="Path 16050" d="M558.947,482.932h-.263l-109.763-39a.9.9,0,0,1-.562-.6.862.862,0,0,1,0-.788l161.812-187.5a.9.9,0,0,1,1.088-.187.937.937,0,0,1,.45.975L559.772,482.257a.788.788,0,0,1-.412.563ZM450.722,442.695,558.31,480.87l51.075-222.075Z" transform="translate(1232.728 700.567)" fill="#fff"/>
        <path id="Path_16051" data-name="Path 16051" d="M478.405,483.015a.873.873,0,0,1-.825-1.087l52.05-226.5a.859.859,0,0,1,1.463-.45L741.73,458.265a.863.863,0,0,1,.225.937.9.9,0,0,1-.75.563L478.48,483.015Zm52.5-225.675-51.338,223.8,259.688-22.875Z" transform="translate(1313.27 700.485)" fill="#fff"/>
        <path id="Path_16052" data-name="Path 16052" d="M492.312,403.89a.75.75,0,0,1-.6-.263.863.863,0,0,1-.187-1.012L594.387,201.652a.826.826,0,0,1,.6-.45.787.787,0,0,1,.712,0L711.05,290.04a1.012,1.012,0,0,1,.338.788.862.862,0,0,1-.488.675L492.762,403.815ZM595.475,203.378,494.225,401,708.837,290.677Z" transform="translate(1351.45 553.072)" fill="#fff"/>
        <path id="Path_16053" data-name="Path 16053" d="M703.061,525.915a.864.864,0,0,1-.6-.225L491.711,322.252a.9.9,0,0,1,.338-1.5l301.35-90a.974.974,0,0,1,.9.225.9.9,0,0,1,.226.862L703.886,525.352a.825.825,0,0,1-.6.6ZM494,322.027,702.649,523.4l89.7-290.512Z" transform="translate(1351.451 634.485)" fill="#fff"/>
        <path id="Path_16054" data-name="Path 16054" d="M492.315,338.784a.9.9,0,0,1-.825-.525.938.938,0,0,1,.412-1.125L710.039,224.859a.788.788,0,0,1,.638,0L793.89,247.1a.975.975,0,0,1,.675.825.9.9,0,0,1-.638.862l-301.35,90Zm218.25-112.2L501.052,334.322l289.275-86.25Z" transform="translate(1351.448 618.178)" fill="#fff"/>
        <path id="Path_16055" data-name="Path 16055" d="M145.28,393.559a1.05,1.05,0,0,1-.825-.6.9.9,0,0,1,.375-1.05l249.562-146.25a1.088,1.088,0,0,1,.675,0,.975.975,0,0,1,.562.45l51.6,91.837a.825.825,0,0,1,0,.787.9.9,0,0,1-.637.488l-301.2,54.3ZM394.542,247.722,150,390.934l295.087-53.212Z" transform="translate(397.121 675.415)" fill="#fff"/>
        <path id="Path_16056" data-name="Path 16056" d="M263.573,361.593h0a.938.938,0,0,1-.675-.45l-51.825-91.725a.9.9,0,0,1,0-.825.862.862,0,0,1,.637-.488l154.05-30.6a.862.862,0,0,1,.938.413.9.9,0,0,1,0,1.013L264.211,361.368A.788.788,0,0,1,263.573,361.593Zm-50.4-92.175,50.4,89.737,100.05-119.55Z" transform="translate(580.177 653.082)" fill="#fff"/>
        <path id="Path_16057" data-name="Path 16057" d="M341.872,243.555h-.225a.862.862,0,0,1-.637-1.05L389.422,56.018a.825.825,0,0,1,1.05-.6.863.863,0,0,1,.638,1.05L342.7,242.88A.825.825,0,0,1,341.872,243.555Z" transform="translate(937.704 152.295)" fill="#fff"/>
        <path id="Path_16058" data-name="Path 16058" d="M341.867,243.525a.657.657,0,0,1-.862-.9L389.417,55.988a.712.712,0,0,1,.412-.525.825.825,0,0,1,.675,0l203.363,61.2a.937.937,0,0,1,.638.787.825.825,0,0,1-.488.863L342.242,243.488A.713.713,0,0,1,341.867,243.525ZM390.88,57.338l-47.7,183.75L591.242,117.675Z" transform="translate(937.708 152.324)" fill="#fff"/>
        <path id="Path_16059" data-name="Path 16059" d="M413.55,343.6a.9.9,0,0,1-.863-.6L341.025,106.225a.9.9,0,0,1,.338-.975.862.862,0,0,1,1.012,0l295.2,210.862a.937.937,0,0,1,.338.938.825.825,0,0,1-.75.637L413.663,343.6ZM343.425,108.213l70.725,233.55,220.5-25.537Z" transform="translate(937.725 288.987)" fill="#fff"/>
        <path id="Path_16060" data-name="Path 16060" d="M637.043,409.391a.787.787,0,0,1-.488,0l-295.2-210.825a.938.938,0,0,1-.375-.787.975.975,0,0,1,.488-.75L593.243,71.853a.9.9,0,0,1,.825,0,.975.975,0,0,1,.45.675l43.425,336.038a.975.975,0,0,1-.9,1.013ZM343.568,197.778l292.5,208.837L592.906,73.8Z" transform="translate(937.694 197.321)" fill="#fff"/>
        <path id="Path_16061" data-name="Path 16061" d="M320,335.8a.937.937,0,0,1-.638-.3.862.862,0,0,1,0-1.163l153.75-165.825a.9.9,0,0,1,1.538.413l8.963,43.65a1.012,1.012,0,0,1-.337.9L320.64,335.611a1.125,1.125,0,0,1-.638.187Zm153.112-165-145.8,157.5L481.7,212.386Z" transform="translate(877.635 462.614)" fill="#fff"/>
        <path id="Path_16062" data-name="Path 16062" d="M319.981,303.782a.9.9,0,0,1-.525-1.575L482.093,180.032a.975.975,0,0,1,1.087,0l102.6,77.287a.9.9,0,0,1-.375,1.575l-265.275,45Zm162.675-121.95L323.431,301.419l259.65-43.913Z" transform="translate(877.657 494.631)" fill="#fff"/>
        <path id="Path_16063" data-name="Path 16063" d="M569.949,479.7a.863.863,0,0,1-.6-.225L319.374,246.97a.9.9,0,0,1-.225-.9.938.938,0,0,1,.712-.638l265.238-45a.824.824,0,0,1,.712.188.787.787,0,0,1,.3.712l-15.3,277.5a.788.788,0,0,1-.563.75ZM321.886,246.97,569.161,476.883l15-274.312Z" transform="translate(877.551 551.142)" fill="#fff"/>
        <path id="Path_16064" data-name="Path 16064" d="M825.62,283.033,521.2,474.62l98.287-371.25,206.588,87.3v-1.913l-206.85-87.375a.863.863,0,0,0-.75,0,.975.975,0,0,0-.45.563L518.87,476.533a1.013,1.013,0,0,0,.338.938.864.864,0,0,0,.525,0,1.165,1.165,0,0,0,.488,0L825.583,285.245Z" transform="translate(1426.855 278.567)" fill="#fff"/>
        <path id="Path_16065" data-name="Path 16065" d="M824.714,309.78l-301.35,32.212,302.175-190.2V149.73L519.313,342.63a.87.87,0,0,0,.45,1.612h0L824.676,311.58Z" transform="translate(1426.937 411.757)" fill="#fff"/>
        <path id="Path_16066" data-name="Path 16066" d="M753.4,188.7,551.242,103.316l202.5,11.925v-1.762L546.217,101.253a.825.825,0,0,0-.9.675.9.9,0,0,0,.488,1.012l207.525,87.675Z" transform="translate(1499.558 278.434)" fill="#fff"/>
        <path id="Path_16067" data-name="Path 16067" d="M225.636,362.21a.825.825,0,0,1-.675-.375.863.863,0,0,1,0-1.088L327.412,238.31a.787.787,0,0,1,.675-.337l202.5-.713h0a.9.9,0,0,1,.863.713.862.862,0,0,1-.563.975L225.636,362.135Zm102.9-122.475L228.6,359.172l297.487-120Z" transform="translate(618.114 652.465)" fill="#fff"/>
        <path id="Path_16068" data-name="Path 16068" d="M472.224,562.427a.75.75,0,0,1-.525-.225L225.061,362.1a.859.859,0,0,1,.225-1.5L530.274,237.415a.863.863,0,0,1,.863,0,.937.937,0,0,1,.337.863l-58.2,323.212a.938.938,0,0,1-.563.675ZM227.311,361.652,471.624,559.915l57.9-320.475Z" transform="translate(617.976 652.573)" fill="#fff"/>
        <path id="Path_16069" data-name="Path 16069" d="M252.924,307.955a.9.9,0,0,1-.863-.712.863.863,0,0,1,.563-.975l251.587-93.75a.862.862,0,0,1,.975.225.787.787,0,0,1,0,.975L456.1,306.831a.9.9,0,0,1-.75.45l-202.5.712Zm249.75-93.037L257.836,306.193l197.1-.713Z" transform="translate(693.126 584.244)" fill="#fff"/>
        <path id="Path_16070" data-name="Path 16070" d="M291.361,562.376a.79.79,0,0,1-.488-.187.863.863,0,0,1-.375-.862l58.388-323.288a.75.75,0,0,1,.45-.638.975.975,0,0,1,.788,0l299.025,139.35a.863.863,0,0,1,0,1.575L291.774,562.3A.752.752,0,0,1,291.361,562.376Zm59.025-322.912-57.975,320.25L646.6,377.388Z" transform="translate(798.839 652.624)" fill="#fff"/>
        <path id="Path_16071" data-name="Path 16071" d="M605.97,446.581H605.6L306.57,307.231a.938.938,0,0,1-.488-.525.825.825,0,0,1,0-.675l49.088-93.075a.863.863,0,0,1,.638-.488.825.825,0,0,1,.712.225L606.5,445.193a.9.9,0,0,1-.6,1.538ZM308.146,305.956,601.283,442.531,356.258,214.718Z" transform="translate(841.53 584.257)" fill="#fff"/>
        <path id="Path_16072" data-name="Path 16072" d="M678.264,314.688l-103.537-38.55,104.062-59.625V214.45L572.214,275.613a.9.9,0,0,0-.412.825.787.787,0,0,0,.562.75l105.9,39.45Z" transform="translate(1572.448 589.737)" fill="#fff"/>
        <path id="Path_16073" data-name="Path 16073" d="M354.743,156.817a.863.863,0,0,1-.713-.412.9.9,0,0,1,.225-1.2L557.468,19.3a.863.863,0,0,1,1.238.225.9.9,0,0,1-.262,1.238l-203.213,135.9a.75.75,0,0,1-.487.15Z" transform="translate(973.207 52.621)" fill="#fff"/>
        <path id="Path_16074" data-name="Path 16074" d="M558.12,218.023h-.225L354.532,156.786a.9.9,0,0,1-.637-.712.938.938,0,0,1,.375-.862l203.212-135.9a.862.862,0,0,1,1.388.713V217.161a.825.825,0,0,1-.9.863Zm-201.3-62.4,200.438,60.337V21.673Z" transform="translate(973.193 52.614)" fill="#fff"/>
        <path id="Path_16075" data-name="Path 16075" d="M408.983,217.918a1.014,1.014,0,0,1-.45,0,.9.9,0,0,1-.412-.75V20.031a.862.862,0,0,1,.412-.75.9.9,0,0,1,.863,0L611.408,125.856a1.013,1.013,0,0,1,.45.825.9.9,0,0,1-.525.787L409.358,217.843a.6.6,0,0,1-.375.075Zm.75-196.537V215.706L608.67,126.418Z" transform="translate(1122.33 52.719)" fill="#fff"/>
        <path id="Path_16076" data-name="Path 16076" d="M610.928,342.553a.713.713,0,0,1-.375,0L408.54,235.978a.9.9,0,0,1-.412-1.088L513.8-58.509a.863.863,0,0,1,.863-.6.975.975,0,0,1,.825.675l96.3,400.012a.825.825,0,0,1-.3.9A.938.938,0,0,1,610.928,342.553ZM410.04,234.778l199.613,105.3L514.44-55.172Z" transform="translate(1122.21 -162.553)" fill="#fff"/>
        <path id="Path_16077" data-name="Path 16077" d="M743.993,392,549.968,522.955l89.363-289.5L744.105,368.267v-2.85L639.818,231.055a.938.938,0,0,0-.862-.337.862.862,0,0,0-.675.638l-90.6,293.475a.9.9,0,0,0,.3.975.863.863,0,0,0,.525,0,.827.827,0,0,0,.487,0l195-131.7Z" transform="translate(1506.007 634.445)" fill="#fff"/>
        <path id="Path_16078" data-name="Path 16078" d="M743.18,454.245,550.655,406.432,744.005,275.82v-2.1L548.03,406.02a.9.9,0,0,0,.262,1.612l195,48.375Z" transform="translate(1505.995 752.73)" fill="#fff"/>
        <path id="Path_16079" data-name="Path 16079" d="M677.8,365.415,575.271,233.49l103.012,38.363v-1.875l-105.3-39.225a.9.9,0,0,0-1.013.338.863.863,0,0,0,0,1.05L677.758,368.265Z" transform="translate(1572.429 634.448)" fill="#fff"/>
        <path id="Path_16080" data-name="Path 16080" d="M567.505-96.74a9.187,9.187,0,0,0-9.225,9.15,9.225,9.225,0,0,0,9.15,9.225,9.225,9.225,0,0,0,9.225-9.15,9.225,9.225,0,0,0-9.15-9.225Z" transform="translate(1535.27 -266.035)" fill="#fff"/>
        <path id="Path_16081" data-name="Path 16081" d="M570.118-94.155a9.225,9.225,0,0,1,9.15,9.225,9.225,9.225,0,0,1-9.225,9.15A9.225,9.225,0,0,1,560.892-85a9.187,9.187,0,0,1,9.225-9.15m0-3.525A12.713,12.713,0,0,0,557.33-85.042a12.713,12.713,0,0,0,12.638,12.75,12.712,12.712,0,0,0,12.787-12.6A12.787,12.787,0,0,0,570.117-97.68Z" transform="translate(1532.658 -268.62)" fill="#fff"/>
        <path id="Path_16082" data-name="Path 16082" d="M180.83,302.78a5.663,5.663,0,1,0,5.625,5.7A5.662,5.662,0,0,0,180.83,302.78Z" transform="translate(481.608 832.645)" fill="#fff"/>
        <path id="Path_16083" data-name="Path 16083" d="M183.415,305.365a5.663,5.663,0,1,1-5.7,5.625,5.662,5.662,0,0,1,5.7-5.625m0-3.525a9.187,9.187,0,1,0,9.15,9.225A9.188,9.188,0,0,0,183.415,301.84Z" transform="translate(479.023 830.06)" fill="#fff"/>
        <path id="Path_16084" data-name="Path 16084" d="M210.83,320.25a7.875,7.875,0,1,0,7.8,7.912A7.875,7.875,0,0,0,210.83,320.25Z" transform="translate(557.92 880.687)" fill="#fff"/>
        <path id="Path_16085" data-name="Path 16085" d="M213.25,322.808a7.875,7.875,0,1,1-7.875,7.8,7.874,7.874,0,0,1,7.875-7.8m0-3.487a11.25,11.25,0,1,0,11.25,11.25A11.25,11.25,0,0,0,213.25,319.32Z" transform="translate(555.5 878.13)" fill="#fff"/>
        <path id="Path_16086" data-name="Path 16086" d="M595.463,72.45a6.788,6.788,0,1,0,4.812,2,6.824,6.824,0,0,0-4.812-2Z" transform="translate(1618.649 199.237)" fill="#fff"/>
        <path id="Path_16087" data-name="Path 16087" d="M598.1,75.035a6.825,6.825,0,1,1-6.825,6.787,6.825,6.825,0,0,1,6.825-6.787m0-3.525A10.35,10.35,0,1,0,608.34,81.9,10.35,10.35,0,0,0,598.1,71.51Z" transform="translate(1616.01 196.652)" fill="#fff"/>
        <circle id="Ellipse_131" data-name="Ellipse 131" cx="11.662" cy="11.662" r="11.662" transform="translate(1751.363 438.975)" fill="#fff"/>
        <path id="Path_16088" data-name="Path 16088" d="M481.425,119.646a11.663,11.663,0,1,1-11.7,11.625,11.663,11.663,0,0,1,11.7-11.625m0-3.525a15.187,15.187,0,1,0,15,15.262A15.188,15.188,0,0,0,481.425,116.121Z" transform="translate(1281.637 319.329)" fill="#fff"/>
        <path id="Path_16089" data-name="Path 16089" d="M519.925,105.437a4.988,4.988,0,1,0-4.987,4.988,4.987,4.987,0,0,0,4.987-4.988Z" transform="translate(1402.363 276.237)" fill="#fff"/>
        <path id="Path_16090" data-name="Path 16090" d="M517.55,103.025A4.987,4.987,0,1,1,512.563,108a5.025,5.025,0,0,1,4.987-4.975m0-3.525a8.512,8.512,0,1,0,8.475,8.55,8.513,8.513,0,0,0-8.475-8.55Z" transform="translate(1399.75 273.625)" fill="#fff"/>
        <path id="Path_16091" data-name="Path 16091" d="M553.633,89.039a11.475,11.475,0,1,0-11.25-11.55,11.25,11.25,0,0,0,11.25,11.55Z" transform="translate(1491.542 181.749)" fill="#fff"/>
        <path id="Path_16092" data-name="Path 16092" d="M556.41,68.675a11.475,11.475,0,1,1-11.55,11.25,11.475,11.475,0,0,1,11.55-11.25m0-3.525a15,15,0,1,0,15,15A15,15,0,0,0,556.41,65.15Z" transform="translate(1488.877 179.162)" fill="#fff"/>
        <path id="Path_16093" data-name="Path 16093" d="M557.645-75.092a7.2,7.2,0,0,0-7.125-7.238,7.163,7.163,0,0,0-5.089,2.085,7.162,7.162,0,0,0-2.111,5.078,7.163,7.163,0,0,0,7.125,7.2A7.162,7.162,0,0,0,557.645-75.092Z" transform="translate(1494.13 -226.408)" fill="#fff"/>
        <path id="Path_16094" data-name="Path 16094" d="M553.105-79.745a7.2,7.2,0,0,1,7.125,7.237,7.162,7.162,0,0,1-7.2,7.125,7.162,7.162,0,0,1-7.125-7.2,7.163,7.163,0,0,1,2.111-5.078,7.162,7.162,0,0,1,5.088-2.085m0-3.525A10.725,10.725,0,0,0,542.38-72.62a10.725,10.725,0,0,0,10.613,10.762,10.725,10.725,0,0,0,10.762-10.65A10.725,10.725,0,0,0,553.1-83.27Z" transform="translate(1491.545 -228.993)" fill="#fff"/>
        <path id="Path_16095" data-name="Path 16095" d="M413.835,193.14a10.35,10.35,0,1,0,7.345,3.058,10.387,10.387,0,0,0-7.345-3.058Z" transform="translate(1109.378 531.135)" fill="#fff"/>
        <path id="Path_16096" data-name="Path 16096" d="M416.447,195.725a10.387,10.387,0,1,1-10.425,10.312,10.387,10.387,0,0,1,10.425-10.312m0-3.525a13.913,13.913,0,1,0,13.838,13.95A13.913,13.913,0,0,0,416.447,192.2Z" transform="translate(1106.765 528.55)" fill="#fff"/>
        <path id="Path_16097" data-name="Path 16097" d="M455.1,302.6a8.925,8.925,0,1,0,8.887,9A8.925,8.925,0,0,0,455.1,302.6Z" transform="translate(1226.885 832.15)" fill="#fff"/>
        <path id="Path_16098" data-name="Path 16098" d="M457.742,305.185a8.925,8.925,0,1,1-8.963,8.888,8.925,8.925,0,0,1,8.963-8.888m0-3.525a12.45,12.45,0,1,0,12.337,12.525,12.45,12.45,0,0,0-12.337-12.525Z" transform="translate(1224.245 829.564)" fill="#fff"/>
        <path id="Path_16099" data-name="Path 16099" d="M486.353,312.28a11.587,11.587,0,1,0,11.513,11.625,11.588,11.588,0,0,0-11.513-11.625Z" transform="translate(1305.397 858.77)" fill="#fff"/>
        <path id="Path_16100" data-name="Path 16100" d="M488.8,314.865a11.587,11.587,0,1,1-11.625,11.513A11.587,11.587,0,0,1,488.8,314.865m0-3.525a15,15,0,1,0,15,15A15,15,0,0,0,488.8,311.34Z" transform="translate(1302.95 856.185)" fill="#fff"/>
        <path id="Path_16101" data-name="Path 16101" d="M496.464,253.23a6.487,6.487,0,1,0,4.617,1.966,6.487,6.487,0,0,0-4.617-1.966Z" transform="translate(1347.336 696.382)" fill="#fff"/>
        <path id="Path_16102" data-name="Path 16102" d="M499.078,255.815a6.487,6.487,0,1,1-6,6.469,6.487,6.487,0,0,1,6-6.469m0-3.525a10.012,10.012,0,1,0,9.937,10.05A10.012,10.012,0,0,0,499.078,252.29Z" transform="translate(1344.722 693.797)" fill="#fff"/>
        <path id="Path_16103" data-name="Path 16103" d="M559.1,221.68a12.488,12.488,0,1,0,8.832,3.7,12.525,12.525,0,0,0-8.832-3.7Z" transform="translate(1502.875 609.62)" fill="#fff"/>
        <path id="Path_16104" data-name="Path 16104" d="M561.685,224.265a12.525,12.525,0,1,1-12.6,12.45,12.525,12.525,0,0,1,12.6-12.45m0-3.525a16.05,16.05,0,1,0,15.975,16.125,16.05,16.05,0,0,0-15.975-16.125Z" transform="translate(1500.29 607.035)" fill="#fff"/>
        <path id="Path_16105" data-name="Path 16105" d="M148.445,283.45a5.1,5.1,0,0,0-5.175,5.1,5.175,5.175,0,1,0,5.175-5.1Z" transform="translate(393.992 779.487)" fill="#fff"/>
        <path id="Path_16106" data-name="Path 16106" d="M151.03,286.035a5.1,5.1,0,1,1-3.654,1.467,5.138,5.138,0,0,1,3.654-1.467m0-3.525a8.662,8.662,0,1,0,8.625,8.7A8.662,8.662,0,0,0,151.03,282.51Z" transform="translate(391.408 776.902)" fill="#fff"/>
        <path id="Path_16107" data-name="Path 16107" d="M217.332,243.63a8.325,8.325,0,1,0,8.287,8.362,8.325,8.325,0,0,0-8.287-8.362Z" transform="translate(574.668 669.982)" fill="#fff"/>
        <path id="Path_16108" data-name="Path 16108" d="M219.945,246.215a8.288,8.288,0,1,1-5.908,2.4,8.325,8.325,0,0,1,5.908-2.4m0-3.525a11.85,11.85,0,1,0,11.775,11.925A11.85,11.85,0,0,0,219.945,242.69Z" transform="translate(572.055 667.397)" fill="#fff"/>
        <path id="Path_16109" data-name="Path 16109" d="M344.613,104a5.062,5.062,0,1,0,4.627,5.044A5.062,5.062,0,0,0,344.613,104Z" transform="translate(934.962 286)" fill="#fff"/>
        <path id="Path_16110" data-name="Path 16110" d="M347.517,106.585a5.062,5.062,0,1,1-4.627,5.044,5.062,5.062,0,0,1,4.627-5.044m0-3.525a8.55,8.55,0,1,0,8.513,8.625,8.55,8.55,0,0,0-8.513-8.625Z" transform="translate(932.058 283.415)" fill="#fff"/>
        <path id="Path_16111" data-name="Path 16111" d="M428.58,158.492a11.475,11.475,0,1,0,11.25,11.55,11.475,11.475,0,0,0-11.25-11.55Z" transform="translate(1146.42 435.846)" fill="#fff"/>
        <path id="Path_16112" data-name="Path 16112" d="M431,161.075a11.475,11.475,0,1,1-11.513,11.25A11.475,11.475,0,0,1,431,161.075m0-3.525a15,15,0,1,0,15,15A15,15,0,0,0,431,157.55Z" transform="translate(1144 433.262)" fill="#fff"/>
        <path id="Path_16113" data-name="Path 16113" d="M363.708,178.333a5.738,5.738,0,1,0-4.607-5.625A5.737,5.737,0,0,0,363.708,178.333Z" transform="translate(987.529 459.167)" fill="#fff"/>
        <path id="Path_16114" data-name="Path 16114" d="M367.188,169.515a5.7,5.7,0,1,1-4.055,1.656,5.738,5.738,0,0,1,4.055-1.656m0-3.525a9.263,9.263,0,1,0,9.187,9.3,9.263,9.263,0,0,0-9.187-9.3Z" transform="translate(984.087 456.472)" fill="#fff"/>
        <path id="Path_16115" data-name="Path 16115" d="M367.48,178.38a6.45,6.45,0,1,0,4.574,1.9A6.45,6.45,0,0,0,367.48,178.38Z" transform="translate(992.833 490.545)" fill="#fff"/>
        <path id="Path_16116" data-name="Path 16116" d="M370.092,180.965a6.45,6.45,0,1,1-6.488,6.412,6.45,6.45,0,0,1,6.488-6.412m0-3.525a9.975,9.975,0,1,0,9.937,10.013,9.975,9.975,0,0,0-9.937-10.013Z" transform="translate(990.22 487.96)" fill="#fff"/>
        <path id="Path_16117" data-name="Path 16117" d="M393.823,199.36a5.063,5.063,0,1,0,5.062,5.063A5.063,5.063,0,0,0,393.823,199.36Z" transform="translate(1069.09 548.24)" fill="#fff"/>
        <path id="Path_16118" data-name="Path 16118" d="M396.435,201.945a5.062,5.062,0,1,1-5.063,5.025,5.062,5.062,0,0,1,5.063-5.025m0-3.525a8.588,8.588,0,1,0,8.55,8.625,8.588,8.588,0,0,0-8.55-8.625Z" transform="translate(1066.478 545.655)" fill="#fff"/>
        <path id="Path_16119" data-name="Path 16119" d="M525.6,199a8.775,8.775,0,1,0,6.232,2.6A8.812,8.812,0,0,0,525.6,199Z" transform="translate(1421.063 547.25)" fill="#fff"/>
        <path id="Path_16120" data-name="Path 16120" d="M528.213,201.585a8.813,8.813,0,1,1-8.812,8.738,8.812,8.812,0,0,1,8.812-8.738m0-3.525a12.338,12.338,0,1,0,12.263,12.375,12.338,12.338,0,0,0-12.263-12.375Z" transform="translate(1418.45 544.665)" fill="#fff"/>
        <path id="Path_16121" data-name="Path 16121" d="M553.03,98.79a10.087,10.087,0,1,0,7.135,2.994A10.125,10.125,0,0,0,553.03,98.79Z" transform="translate(1492.782 271.672)" fill="#fff"/>
        <path id="Path_16122" data-name="Path 16122" d="M555.615,101.375a10.088,10.088,0,1,1-7.168,2.915,10.125,10.125,0,0,1,7.168-2.915m0-3.525a13.65,13.65,0,1,0,13.575,13.688A13.65,13.65,0,0,0,555.615,97.85Z" transform="translate(1490.197 269.087)" fill="#fff"/>
        <path id="Path_16123" data-name="Path 16123" d="M233.113,267.42a10.95,10.95,0,1,0,7.745,3.247,10.987,10.987,0,0,0-7.745-3.247Z" transform="translate(610.637 735.405)" fill="#fff"/>
        <path id="Path_16124" data-name="Path 16124" d="M235.7,270.005a10.95,10.95,0,1,1-7.778,3.167,10.987,10.987,0,0,1,7.778-3.167m0-3.525a14.475,14.475,0,1,0,10.238,4.279A14.512,14.512,0,0,0,235.7,266.48Z" transform="translate(608.053 732.82)" fill="#fff"/>
        <path id="Path_16125" data-name="Path 16125" d="M263.6,242.389a6.613,6.613,0,1,0-6.263,6.262,6.3,6.3,0,0,0,6.263-6.262Z" transform="translate(688.903 648.986)" fill="#fff"/>
        <path id="Path_16126" data-name="Path 16126" d="M259.578,238.585a6.337,6.337,0,1,1-6.375,6.3,6.337,6.337,0,0,1,6.375-6.3m0-3.525a9.862,9.862,0,1,0,9.788,9.9A9.862,9.862,0,0,0,259.578,235.06Z" transform="translate(686.51 646.414)" fill="#fff"/>
        <path id="Path_16127" data-name="Path 16127" d="M298.083,321.07a9.937,9.937,0,1,0,9.862,9.975,9.937,9.937,0,0,0-9.862-9.975Z" transform="translate(792.192 882.942)" fill="#fff"/>
        <path id="Path_16128" data-name="Path 16128" d="M300.667,323.655a9.863,9.863,0,1,1-7.046,2.848,9.938,9.938,0,0,1,7.046-2.848m0-3.525a13.462,13.462,0,1,0,13.388,13.5A13.462,13.462,0,0,0,300.667,320.13Z" transform="translate(789.608 880.357)" fill="#fff"/>
        <path id="Path_16129" data-name="Path 16129" d="M313.973,234.73a10.35,10.35,0,1,0,7.321,3.071A10.387,10.387,0,0,0,313.973,234.73Z" transform="translate(834.652 645.507)" fill="#fff"/>
        <path id="Path_16130" data-name="Path 16130" d="M316.585,237.315a10.35,10.35,0,1,1-7.354,2.992,10.387,10.387,0,0,1,7.354-2.992m0-3.525a13.912,13.912,0,1,0,13.8,13.987,13.913,13.913,0,0,0-13.8-13.987Z" transform="translate(832.04 642.922)" fill="#fff"/>
        <path id="Path_16131" data-name="Path 16131" d="M392.71,272.24a9.075,9.075,0,1,0,9,9.112A9.075,9.075,0,0,0,392.71,272.24Z" transform="translate(1054.79 748.66)" fill="#fff"/>
        <path id="Path_16132" data-name="Path 16132" d="M395.295,274.825a9.037,9.037,0,1,1-6.426,2.607,9.075,9.075,0,0,1,6.426-2.607m0-3.525a12.6,12.6,0,1,0,12.525,12.637A12.6,12.6,0,0,0,395.295,271.3Z" transform="translate(1052.205 746.075)" fill="#fff"/>
        <path id="Path_16133" data-name="Path 16133" d="M324.3,210.9a6.675,6.675,0,1,0,6.637,6.675A6.675,6.675,0,0,0,324.3,210.9Z" transform="translate(873.372 579.975)" fill="#fff"/>
        <path id="Path_16134" data-name="Path 16134" d="M326.915,213.485a6.675,6.675,0,1,1-6.675,6.637,6.675,6.675,0,0,1,6.675-6.637m0-3.525A10.2,10.2,0,1,0,337.04,220.2a10.2,10.2,0,0,0-10.125-10.238Z" transform="translate(870.76 577.39)" fill="#fff"/>
        <path id="Path_16135" data-name="Path 16135" d="M359.987,53.49a7.95,7.95,0,1,0,7.912,7.987,7.95,7.95,0,0,0-7.912-7.987Z" transform="translate(968 147.097)" fill="#fff"/>
        <path id="Path_16136" data-name="Path 16136" d="M362.71,56.049a7.95,7.95,0,1,1-7.988,7.912,7.95,7.95,0,0,1,7.988-7.912m0-3.488a11.475,11.475,0,1,0,11.25,11.513,11.25,11.25,0,0,0-11.25-11.513Z" transform="translate(965.277 144.538)" fill="#fff"/>
        <path id="Path_16137" data-name="Path 16137" d="M412.674,70.37a5.85,5.85,0,1,0,4.257,1.792,5.888,5.888,0,0,0-4.257-1.792Z" transform="translate(1118.676 193.517)" fill="#fff"/>
        <path id="Path_16138" data-name="Path 16138" d="M415.29,72.955a5.888,5.888,0,1,1-5.925,5.85,5.888,5.888,0,0,1,5.925-5.85m0-3.525a9.413,9.413,0,1,0,9.375,9.45,9.413,9.413,0,0,0-9.375-9.45Z" transform="translate(1116.06 190.932)" fill="#fff"/>
        <path id="Path_16139" data-name="Path 16139" d="M420.9-68.47a9.45,9.45,0,0,0-9.412,9.262,9.451,9.451,0,0,0,2.728,6.717,9.45,9.45,0,0,0,6.685,2.808,9.412,9.412,0,0,0,9.45-9.338,9.412,9.412,0,0,0-2.757-6.693A9.412,9.412,0,0,0,420.9-68.47Z" transform="translate(1131.597 -188.293)" fill="#fff"/>
        <path id="Path_16140" data-name="Path 16140" d="M423.46-65.885a9.413,9.413,0,0,1,9.337,9.45,9.412,9.412,0,0,1-9.337,9.338,9.45,9.45,0,0,1-6.685-2.808,9.451,9.451,0,0,1-2.728-6.717,9.45,9.45,0,0,1,9.413-9.262m0-3.525a12.938,12.938,0,0,0-12.9,12.788,12.938,12.938,0,0,0,3.736,9.208,12.938,12.938,0,0,0,9.164,3.842,12.938,12.938,0,0,0,12.975-12.862,12.937,12.937,0,0,0-3.789-9.186,12.938,12.938,0,0,0-9.186-3.789Z" transform="translate(1129.04 -190.878)" fill="#fff"/>
        <path id="Path_16141" data-name="Path 16141" d="M417.568,41.4a12.675,12.675,0,1,0-8.978-3.765,12.713,12.713,0,0,0,8.978,3.765Z" transform="translate(1113.557 43.945)" fill="#fff"/>
        <path id="Path_16142" data-name="Path 16142" d="M420.32,18.585a12.712,12.712,0,1,1-12.75,12.637,12.713,12.713,0,0,1,12.75-12.637m0-3.525a16.237,16.237,0,1,0,16.125,16.313A16.237,16.237,0,0,0,420.32,15.06Z" transform="translate(1110.917 41.415)" fill="#fff"/>
        <path id="Path_16143" data-name="Path 16143" d="M466.937,46.06a6.488,6.488,0,1,0,4.6,1.913,6.488,6.488,0,0,0-4.6-1.913Z" transform="translate(1266.238 126.665)" fill="#fff"/>
        <path id="Path_16144" data-name="Path 16144" d="M469.578,48.645a6.488,6.488,0,1,1-6.488,6.488,6.488,6.488,0,0,1,6.488-6.488m0-3.525a10.012,10.012,0,1,0,9.938,10.05,10.013,10.013,0,0,0-9.938-10.05Z" transform="translate(1263.597 124.08)" fill="#fff"/>
        <path id="Path_16145" data-name="Path 16145" d="M441.808-60.79a7.163,7.163,0,0,0-5.113,2.071,7.163,7.163,0,0,0-2.124,5.091,7.161,7.161,0,0,0,2.071,5.113,7.162,7.162,0,0,0,5.091,2.124,7.163,7.163,0,0,0,5.113-2.071,7.163,7.163,0,0,0,2.124-5.091,7.162,7.162,0,0,0-2.071-5.113,7.162,7.162,0,0,0-5.091-2.124Z" transform="translate(1195.067 -167.173)" fill="#fff"/>
        <path id="Path_16146" data-name="Path 16146" d="M444.393-58.2a7.163,7.163,0,0,1,5.092,2.125,7.162,7.162,0,0,1,2.071,5.113,7.163,7.163,0,0,1-2.125,5.092,7.162,7.162,0,0,1-5.113,2.071,7.163,7.163,0,0,1-5.092-2.125,7.162,7.162,0,0,1-2.071-5.113,7.163,7.163,0,0,1,2.125-5.092,7.162,7.162,0,0,1,5.113-2.071m0-3.525A10.725,10.725,0,0,0,433.63-51.08a10.762,10.762,0,0,0,10.65,10.838,10.762,10.762,0,0,0,10.8-10.688,10.688,10.688,0,0,0-3.1-7.606,10.688,10.688,0,0,0-7.584-3.157Z" transform="translate(1192.482 -169.758)" fill="#fff"/>
        <path id="Path_16147" data-name="Path 16147" d="M552.858,307.41a6.75,6.75,0,1,0,6.712,6.788,6.75,6.75,0,0,0-6.712-6.788Z" transform="translate(1501.693 845.377)" fill="#fff"/>
        <path id="Path_16148" data-name="Path 16148" d="M555.87,310.009a6.75,6.75,0,1,1-6.787,6.712,6.75,6.75,0,0,1,6.787-6.712m0-3.525a10.275,10.275,0,1,0,9.655,10.256A10.275,10.275,0,0,0,555.87,306.484Z" transform="translate(1498.68 842.779)" fill="#fff"/>
        <circle id="Ellipse_132" data-name="Ellipse 132" cx="8.4" cy="8.4" r="8.4" transform="translate(2136.712 857.625)" fill="#fff"/>
        <path id="Path_16149" data-name="Path 16149" d="M580.8,231.3a8.4,8.4,0,1,1-8.4,8.325,8.4,8.4,0,0,1,8.4-8.325m0-3.525a11.925,11.925,0,1,0,11.85,11.963A11.925,11.925,0,0,0,580.8,227.77Z" transform="translate(1564.199 626.367)" fill="#fff"/>
      </g>
    </g>
  </g>
</svg>
