<svg xmlns="http://www.w3.org/2000/svg" width="182" height="4" viewBox="0 0 182 4">
  <line id="Line_1" data-name="Line 1" x2="182" transform="translate(0 2)" fill="none" stroke="#f174ac" stroke-width="4"/>
</svg>
