<svg xmlns="http://www.w3.org/2000/svg" width="174" height="46" viewBox="0 0 174 46">
  <g id="Group_4994" data-name="Group 4994" transform="translate(-224 -53)">
    <g id="Layer_2" data-name="Layer 2" transform="translate(224.012 53)">
      <g id="Layer_1" data-name="Layer 1" transform="translate(-0.012)">
        <path id="Path_1" data-name="Path 1" d="M3.744,16.569s3.343-4.22,11.413-5.308a12.377,12.377,0,0,1,2.985-1.2s1.115-3.9,8.3-4.909a16.371,16.371,0,0,0-6.211-.876,15.234,15.234,0,0,0-11.788,6.13A4.57,4.57,0,0,0,4.328,7.837,4.325,4.325,0,0,0,0,11.818,4.43,4.43,0,0,0,3.744,16.569Z" transform="translate(0.012 -3.102)" fill="#96d5cd"/>
        <path id="Path_2" data-name="Path 2" d="M72.42,6.274A18.648,18.648,0,0,1,82.4,8.211s6.583.176,9.519-.9a4.136,4.136,0,0,0,1.064-3.7A4.457,4.457,0,0,0,88.455,0,4.4,4.4,0,0,0,84.24,4.385C84.246,4.385,77.8,1.042,72.42,6.274Z" transform="translate(-52.765)" fill="#7556a2"/>
        <path id="Path_3" data-name="Path 3" d="M150.107,59.22a11.218,11.218,0,0,1-3.237,3.256s2.364,1.965,3.1,7.055A16.344,16.344,0,0,0,150.107,59.22Z" transform="translate(-107.012 -43.15)" fill="#7556a2"/>
        <circle id="Ellipse_5" data-name="Ellipse 5" cx="4.407" cy="4.407" r="4.407" transform="translate(36.186 31.44)" fill="#a567a8"/>
        <circle id="Ellipse_6" data-name="Ellipse 6" cx="4.407" cy="4.407" r="4.407" transform="matrix(0.224, -0.975, 0.975, 0.224, 3.907, 43.908)" fill="#f776af"/>
        <path id="Path_4" data-name="Path 4" d="M105.126,73.784s-.054-.453.317-.239a10.078,10.078,0,0,1,2.6,6.9s.32,6.9-8.361,14.016a14.942,14.942,0,0,1-8.575,2.9s2.361-1.487,2.947-6a16.07,16.07,0,0,0,9.582-9.047A20.851,20.851,0,0,0,105.126,73.784Z" transform="translate(-66.383 -53.546)" fill="#a567a8"/>
        <path id="Path_5" data-name="Path 5" d="M19.5,110.178v-4.342a16.161,16.161,0,0,1-8.26-9.991,4.07,4.07,0,0,1-1.8-1.115l-2.575,2.1A1.016,1.016,0,0,1,5.9,97.1a15.8,15.8,0,0,0,5.655,8.548S17.6,110.154,19.5,110.178Z" transform="translate(-4.296 -69.024)" fill="#f776af"/>
        <path id="Path_6" data-name="Path 6" d="M5.5,46.221s6.16-5.612,12.9-5.552c0,0,2.866-.315,2.866,1.756L20.689,63.29s5.68,1.859,8.228-2.548a7.926,7.926,0,0,0,1.064-3.558l.372-13.478s-.128-1.669.8-2.252c0,0,.461-.48,2.336-.516a21.766,21.766,0,0,0,7.663-2.106,11.592,11.592,0,0,0,5.4-5.427,11.012,11.012,0,0,0,.9-3.682,13.863,13.863,0,0,0-.125-2.513s-2.141,2.2-11.964,2.407c0,0-5.5-.125-10.423-.317,0,0-6.6-.5-12.051,2.141C12.884,31.454,4.122,35.294,5.5,46.221Z" transform="translate(-3.899 -19.826)" fill="#72bce9"/>
      </g>
    </g>
    <text id="TribeOne" transform="translate(280 80)" fill="#fff" font-size="25" font-family="OpenSans-Bold, Open Sans" font-weight="700"><tspan x="0" y="0">TribeOne</tspan></text>
    <text id="Join_the_Tribe" data-name="Join the Tribe" transform="translate(280 95)" fill="#fff" font-size="10" font-family="Poppins-Light, Poppins" font-weight="300" letter-spacing="0.4em"><tspan x="0" y="0">Join the Tribe</tspan></text>
  </g>
</svg>
