<svg xmlns="http://www.w3.org/2000/svg" xmlns:xlink="http://www.w3.org/1999/xlink" width="1920" height="1080" viewBox="0 0 1920 1080">
  <defs>
    <filter id="Rectangle_1803" x="359" y="169" width="1202" height="742" filterUnits="userSpaceOnUse">
      <feOffset input="SourceAlpha"/>
      <feGaussianBlur stdDeviation="25" result="blur"/>
      <feFlood flood-opacity="0.102"/>
      <feComposite operator="in" in2="blur"/>
      <feComposite in="SourceGraphic"/>
    </filter>
    <clipPath id="clip-path">
      <rect id="Rectangle_1802" data-name="Rectangle 1802" width="1053" height="592" rx="30" transform="translate(-0.333 0)" fill="#fff" stroke="#707070" stroke-width="1"/>
    </clipPath>
    <linearGradient id="linear-gradient" x1="0.5" y1="0.576" x2="0.5" y2="1" gradientUnits="objectBoundingBox">
      <stop offset="0" stop-color="#ff0381"/>
      <stop offset="1" stop-color="#fea3cb"/>
    </linearGradient>
    <linearGradient id="linear-gradient-2" x1="0.5" x2="0.5" y2="1" gradientUnits="objectBoundingBox">
      <stop offset="0" stop-color="#74bdea"/>
      <stop offset="1" stop-color="#1900ff"/>
    </linearGradient>
    <linearGradient id="linear-gradient-3" x1="0.5" x2="0.5" y2="1" gradientUnits="objectBoundingBox">
      <stop offset="0" stop-color="#a2efe5"/>
      <stop offset="1" stop-color="#00ae5d"/>
    </linearGradient>
    <linearGradient id="linear-gradient-4" x1="0.027" x2="0.339" y2="0.215" gradientUnits="objectBoundingBox">
      <stop offset="0" stop-color="#7655a2"/>
      <stop offset="1" stop-color="#8000ff"/>
    </linearGradient>
    <linearGradient id="linear-gradient-5" x1="0.5" x2="0.5" y2="0.5" gradientUnits="objectBoundingBox">
      <stop offset="0" stop-color="#caaaf5"/>
      <stop offset="1" stop-color="#5400ff"/>
    </linearGradient>
    <clipPath id="clip-bg">
      <rect width="1920" height="1080"/>
    </clipPath>
  </defs>
  <g id="bg" clip-path="url(#clip-bg)">
    <rect width="1920" height="1080" fill="#fff"/>
    <g id="Group_5622" data-name="Group 5622">
      <g transform="matrix(1, 0, 0, 1, 0, 0)" filter="url(#Rectangle_1803)">
        <g id="Rectangle_1803-2" data-name="Rectangle 1803" transform="translate(434 244)" fill="#f0eefb" stroke="#7655a2" stroke-width="2">
          <rect width="1052" height="592" rx="30" stroke="none"/>
          <rect x="1" y="1" width="1050" height="590" rx="29" fill="none"/>
        </g>
      </g>
      <g id="Mask_Group_21" data-name="Mask Group 21" transform="translate(434.333 244)" clip-path="url(#clip-path)">
        <g id="Group_5621" data-name="Group 5621" transform="translate(-292.084 -280.039)">
          <circle id="Ellipse_226" data-name="Ellipse 226" cx="245" cy="245" r="245" transform="translate(805.75 0.039)" opacity="0.3" fill="url(#linear-gradient)"/>
          <rect id="Rectangle_1800" data-name="Rectangle 1800" width="427.025" height="427.025" transform="matrix(0.719, 0.695, -0.695, 0.719, 296.637, 378.829)" opacity="0.42" fill="url(#linear-gradient-2)"/>
          <ellipse id="Ellipse_227" data-name="Ellipse 227" cx="91.5" cy="92" rx="91.5" ry="92" transform="translate(1224.751 392.039)" opacity="0.53" fill="url(#linear-gradient-3)"/>
          <rect id="Rectangle_1801" data-name="Rectangle 1801" width="324" height="324" transform="translate(1205.75 805.039)" opacity="0.53" fill="url(#linear-gradient-4)"/>
          <circle id="Ellipse_228" data-name="Ellipse 228" cx="161" cy="161" r="161" transform="translate(644.75 750.039)" opacity="0.53" fill="url(#linear-gradient-5)"/>
        </g>
      </g>
    </g>
  </g>
</svg>
